<?xml version="1.0" encoding="UTF-8" standalone="no"?>
<!-- Created with Inkscape (http://www.inkscape.org/) -->
<svg xmlns:dc="http://purl.org/dc/elements/1.1/" xmlns:cc="http://web.resource.org/cc/" xmlns:rdf="http://www.w3.org/1999/02/22-rdf-syntax-ns#" xmlns:svg="http://www.w3.org/2000/svg" xmlns="http://www.w3.org/2000/svg" xmlns:xlink="http://www.w3.org/1999/xlink" xmlns:sodipodi="http://sodipodi.sourceforge.net/DTD/sodipodi-0.dtd" xmlns:inkscape="http://www.inkscape.org/namespaces/inkscape" inkscape:export-ydpi="90.000000" inkscape:export-xdpi="90.000000" inkscape:export-filename="/home/jimmac/Desktop/wi-fi.png" width="48px" height="48px" id="svg11300" sodipodi:version="0.32" inkscape:version="0.44" sodipodi:docbase="/home/jimmac/src/cvs/tango-icon-theme/scalable/actions" sodipodi:docname="view-fullscreen.svg">
  <defs id="defs3">
    <radialGradient inkscape:collect="always" xlink:href="#linearGradient5060" id="radialGradient5031" gradientUnits="userSpaceOnUse" gradientTransform="matrix(-2.77439, 0, 0, 1.96971, 112.762, -872.885)" cx="605.71429" cy="486.64789" fx="605.71429" fy="486.64789" r="117.14286"/>
    <linearGradient inkscape:collect="always" id="linearGradient5060">
      <stop style="stop-color:black;stop-opacity:1;" offset="0" id="stop5062"/>
      <stop style="stop-color:black;stop-opacity:0;" offset="1" id="stop5064"/>
    </linearGradient>
    <radialGradient inkscape:collect="always" xlink:href="#linearGradient5060" id="radialGradient5029" gradientUnits="userSpaceOnUse" gradientTransform="matrix(2.77439, 0, 0, 1.96971, -1891.63, -872.885)" cx="605.71429" cy="486.64789" fx="605.71429" fy="486.64789" r="117.14286"/>
    <linearGradient id="linearGradient5048">
      <stop style="stop-color:black;stop-opacity:0;" offset="0" id="stop5050"/>
      <stop id="stop5056" offset="0.5" style="stop-color:black;stop-opacity:1;"/>
      <stop style="stop-color:black;stop-opacity:0;" offset="1" id="stop5052"/>
    </linearGradient>
    <linearGradient inkscape:collect="always" xlink:href="#linearGradient5048" id="linearGradient5027" gradientUnits="userSpaceOnUse" gradientTransform="matrix(2.77439, 0, 0, 1.96971, -1892.18, -872.885)" x1="302.85715" y1="366.64789" x2="302.85715" y2="609.50507"/>
    <linearGradient inkscape:collect="always" id="linearGradient3284">
      <stop style="stop-color:#000000;stop-opacity:1;" offset="0" id="stop3286"/>
      <stop style="stop-color:#000000;stop-opacity:0;" offset="1" id="stop3288"/>
    </linearGradient>
    <linearGradient inkscape:collect="always" id="linearGradient3260">
      <stop style="stop-color:#204a87;stop-opacity:1;" offset="0" id="stop3262"/>
      <stop style="stop-color:#204a87;stop-opacity:0;" offset="1" id="stop3264"/>
    </linearGradient>
    <linearGradient id="linearGradient3239">
      <stop style="stop-color:#e3eded;stop-opacity:1;" offset="0" id="stop3241"/>
      <stop style="stop-color:#f5f5f5;stop-opacity:1;" offset="1" id="stop3243"/>
    </linearGradient>
    <linearGradient id="linearGradient11520">
      <stop id="stop11522" offset="0.0000000" style="stop-color:#ffffff;stop-opacity:1.0000000;"/>
      <stop id="stop11524" offset="1.0000000" style="stop-color:#dcdcdc;stop-opacity:1.0000000;"/>
    </linearGradient>
    <linearGradient id="linearGradient11508" inkscape:collect="always">
      <stop id="stop11510" offset="0" style="stop-color:#000000;stop-opacity:1;"/>
      <stop id="stop11512" offset="1" style="stop-color:#000000;stop-opacity:0;"/>
    </linearGradient>
    <linearGradient id="linearGradient11494" inkscape:collect="always">
      <stop id="stop11496" offset="0" style="stop-color:#ef2929;stop-opacity:1;"/>
      <stop id="stop11498" offset="1" style="stop-color:#ef2929;stop-opacity:0;"/>
    </linearGradient>
    <linearGradient id="linearGradient11415">
      <stop id="stop11417" offset="0.0000000" style="stop-color:#204a87;stop-opacity:0.0000000;"/>
      <stop style="stop-color:#204a87;stop-opacity:1.0000000;" offset="0.50000000" id="stop11423"/>
      <stop id="stop11419" offset="1" style="stop-color:#204a87;stop-opacity:0;"/>
    </linearGradient>
    <linearGradient id="linearGradient11399" inkscape:collect="always">
      <stop id="stop11401" offset="0" style="stop-color:#000000;stop-opacity:1;"/>
      <stop id="stop11403" offset="1" style="stop-color:#000000;stop-opacity:0;"/>
    </linearGradient>
    <linearGradient gradientTransform="translate(-60.2857, -0.285714)" y2="34.462429" x2="43.615788" y1="3.7744560" x1="15.828360" gradientUnits="userSpaceOnUse" id="linearGradient11425" xlink:href="#linearGradient11415" inkscape:collect="always"/>
    <linearGradient gradientTransform="translate(-60.5714)" y2="39.033859" x2="35.679932" y1="9.3458843" x1="9.6957054" gradientUnits="userSpaceOnUse" id="linearGradient11427" xlink:href="#linearGradient11415" inkscape:collect="always"/>
    <linearGradient y2="33.462429" x2="26.758644" y1="19.774456" x1="13.267134" gradientTransform="translate(-60.8571, 0.428571)" gradientUnits="userSpaceOnUse" id="linearGradient11439" xlink:href="#linearGradient11415" inkscape:collect="always"/>
    <radialGradient r="8.5000000" fy="39.142857" fx="12.071428" cy="39.142857" cx="12.071428" gradientTransform="matrix(1, 0, 0, 0.487395, 0, 20.0648)" gradientUnits="userSpaceOnUse" id="radialGradient11441" xlink:href="#linearGradient11399" inkscape:collect="always"/>
    <radialGradient gradientTransform="matrix(1.24345, 2.10678e-16, -2.10678e-16, 1.24345, -6.71375, -3.74285)" gradientUnits="userSpaceOnUse" r="3.8335034" fy="15.048258" fx="27.577173" cy="15.048258" cx="27.577173" id="radialGradient11500" xlink:href="#linearGradient11494" inkscape:collect="always"/>
    <radialGradient r="3.8335034" fy="16.049133" fx="27.577173" cy="16.049133" cx="27.577173" gradientTransform="matrix(1.24345, 2.10678e-16, -2.10678e-16, 1.24345, -6.71375, -3.74285)" gradientUnits="userSpaceOnUse" id="radialGradient11504" xlink:href="#linearGradient11494" inkscape:collect="always"/>
    <radialGradient gradientUnits="userSpaceOnUse" gradientTransform="matrix(1, 0, 0, 0.338462, 2.16658e-14, 29.4818)" r="6.5659914" fy="44.565483" fx="30.203562" cy="44.565483" cx="30.203562" id="radialGradient11514" xlink:href="#linearGradient11508" inkscape:collect="always"/>
    <radialGradient gradientTransform="matrix(1.99506, -1.65153e-32, 0, 1.99506, -24.3249, -35.7009)" gradientUnits="userSpaceOnUse" r="20.530962" fy="35.878170" fx="24.445690" cy="35.878170" cx="24.445690" id="radialGradient11526" xlink:href="#linearGradient11520" inkscape:collect="always"/>
    <radialGradient r="6.5659914" fy="44.565483" fx="30.203562" cy="44.565483" cx="30.203562" gradientTransform="matrix(1, 0, 0, 0.338462, 3.18583e-15, 29.4818)" gradientUnits="userSpaceOnUse" id="radialGradient11532" xlink:href="#linearGradient11508" inkscape:collect="always"/>
    <radialGradient inkscape:collect="always" xlink:href="#linearGradient11508" id="radialGradient1348" gradientUnits="userSpaceOnUse" gradientTransform="matrix(1, 0, 0, 0.338462, -1.35334e-14, 29.4818)" cx="30.203562" cy="44.565483" fx="30.203562" fy="44.565483" r="6.5659914"/>
    <radialGradient inkscape:collect="always" xlink:href="#linearGradient11520" id="radialGradient1350" gradientUnits="userSpaceOnUse" gradientTransform="matrix(1.99506, -1.65153e-32, 0, 1.99506, -24.3249, -35.7009)" cx="24.445690" cy="35.878170" fx="24.445690" fy="35.878170" r="20.530962"/>
    <radialGradient inkscape:collect="always" xlink:href="#linearGradient11494" id="radialGradient1352" gradientUnits="userSpaceOnUse" gradientTransform="matrix(1.24345, 2.10678e-16, -2.10678e-16, 1.24345, -6.71375, -3.74285)" cx="27.577173" cy="16.049133" fx="27.577173" fy="16.049133" r="3.8335034"/>
    <radialGradient inkscape:collect="always" xlink:href="#linearGradient11494" id="radialGradient1354" gradientUnits="userSpaceOnUse" gradientTransform="matrix(1.24345, 2.10678e-16, -2.10678e-16, 1.24345, -6.71375, -3.74285)" cx="27.577173" cy="15.048258" fx="27.577173" fy="15.048258" r="3.8335034"/>
    <radialGradient inkscape:collect="always" xlink:href="#linearGradient11508" id="radialGradient1356" gradientUnits="userSpaceOnUse" gradientTransform="matrix(1, 0, 0, 0.338462, 2.22036e-14, 29.4818)" cx="30.203562" cy="44.565483" fx="30.203562" fy="44.565483" r="6.5659914"/>
    <radialGradient inkscape:collect="always" xlink:href="#linearGradient11520" id="radialGradient1366" gradientUnits="userSpaceOnUse" gradientTransform="matrix(2.04927, -1.6964e-32, 0, 2.04927, -25.65, -37.3109)" cx="24.445690" cy="35.878170" fx="24.445690" fy="35.878170" r="20.530962"/>
    <linearGradient inkscape:collect="always" xlink:href="#linearGradient3239" id="linearGradient3249" gradientUnits="userSpaceOnUse" x1="22.625" y1="7.7097101" x2="22.625" y2="40.5" gradientTransform="matrix(1.01177, 0, 0, 1.01177, -0.0352941, -0.529412)"/>
    <linearGradient inkscape:collect="always" xlink:href="#linearGradient3260" id="linearGradient3266" x1="12.363961" y1="11.394304" x2="18.22703" y2="17.58149" gradientUnits="userSpaceOnUse"/>
    <linearGradient inkscape:collect="always" xlink:href="#linearGradient3260" id="linearGradient3270" gradientUnits="userSpaceOnUse" x1="12.363961" y1="11.394304" x2="18.22703" y2="17.58149" gradientTransform="matrix(-1, 0, 0, 1, 49, 0)"/>
    <linearGradient inkscape:collect="always" xlink:href="#linearGradient3260" id="linearGradient3278" gradientUnits="userSpaceOnUse" x1="12.363961" y1="11.394304" x2="18.22703" y2="17.58149" gradientTransform="matrix(1, 0, 0, -1, 0, 47.0312)"/>
    <linearGradient inkscape:collect="always" xlink:href="#linearGradient3260" id="linearGradient3280" gradientUnits="userSpaceOnUse" gradientTransform="matrix(-1, 0, 0, -1, 49, 47.0312)" x1="12.363961" y1="11.394304" x2="18.22703" y2="17.58149"/>
    <radialGradient inkscape:collect="always" xlink:href="#linearGradient3284" id="radialGradient3290" cx="25.455845" cy="43.403805" fx="25.455845" fy="43.403805" r="20.682873" gradientTransform="matrix(1, 0, 0, 0.205128, 0, 34.5005)" gradientUnits="userSpaceOnUse"/>
  </defs>
  <sodipodi:namedview stroke="#ef2929" fill="#204a87" id="base" pagecolor="#ffffff" bordercolor="#666666" borderopacity="0.25490196" inkscape:pageopacity="0.0" inkscape:pageshadow="2" inkscape:zoom="8" inkscape:cx="26.507105" inkscape:cy="35.890897" inkscape:current-layer="layer1" showgrid="false" inkscape:grid-bbox="true" inkscape:document-units="px" inkscape:showpageshadow="false" inkscape:window-width="970" inkscape:window-height="979" inkscape:window-x="2049" inkscape:window-y="186"/>
  <metadata id="metadata4">
    <rdf:RDF>
      <cc:Work rdf:about="">
        <dc:format>image/svg+xml</dc:format>
        <dc:type rdf:resource="http://purl.org/dc/dcmitype/StillImage"/>
        <dc:creator>
          <cc:Agent>
            <dc:title>Jakub Steiner</dc:title>
          </cc:Agent>
        </dc:creator>
        <dc:source>http://jimmac.musichall.cz</dc:source>
        <cc:license rdf:resource="http://creativecommons.org/licenses/by-sa/2.0/"/>
        <dc:title>View Fullscreen</dc:title>
      </cc:Work>
      <cc:License rdf:about="http://creativecommons.org/licenses/by-sa/2.0/">
        <cc:permits rdf:resource="http://web.resource.org/cc/Reproduction"/>
        <cc:permits rdf:resource="http://web.resource.org/cc/Distribution"/>
        <cc:requires rdf:resource="http://web.resource.org/cc/Notice"/>
        <cc:requires rdf:resource="http://web.resource.org/cc/Attribution"/>
        <cc:permits rdf:resource="http://web.resource.org/cc/DerivativeWorks"/>
        <cc:requires rdf:resource="http://web.resource.org/cc/ShareAlike"/>
      </cc:License>
    </rdf:RDF>
  </metadata>
  <g id="layer1" inkscape:label="Layer 1" inkscape:groupmode="layer">
    <g style="display:inline" id="g5022" transform="matrix(0.023129, 0, 0, 0.0148574, 44.967, 42.7963)">
      <rect y="-150.69685" x="-1559.2523" height="478.35718" width="1339.6335" id="rect4173" style="opacity:0.40206185;color:black;fill:url(#linearGradient5027);fill-opacity:1;fill-rule:nonzero;stroke:none;stroke-width:1;stroke-linecap:round;stroke-linejoin:miter;marker:none;marker-start:none;marker-mid:none;marker-end:none;stroke-miterlimit:4;stroke-dasharray:none;stroke-dashoffset:0;stroke-opacity:1;visibility:visible;display:inline;overflow:visible"/>
      <path sodipodi:nodetypes="cccc" id="path5058" d="M -219.61876,-150.68038 C -219.61876,-150.68038 -219.61876,327.65041 -219.61876,327.65041 C -76.744594,328.55086 125.78146,220.48075 125.78138,88.454235 C 125.78138,-43.572302 -33.655436,-150.68036 -219.61876,-150.68038 z " style="opacity:0.40206185;color:black;fill:url(#radialGradient5029);fill-opacity:1;fill-rule:nonzero;stroke:none;stroke-width:1;stroke-linecap:round;stroke-linejoin:miter;marker:none;marker-start:none;marker-mid:none;marker-end:none;stroke-miterlimit:4;stroke-dasharray:none;stroke-dashoffset:0;stroke-opacity:1;visibility:visible;display:inline;overflow:visible"/>
      <path style="opacity:0.40206185;color:black;fill:url(#radialGradient5031);fill-opacity:1;fill-rule:nonzero;stroke:none;stroke-width:1;stroke-linecap:round;stroke-linejoin:miter;marker:none;marker-start:none;marker-mid:none;marker-end:none;stroke-miterlimit:4;stroke-dasharray:none;stroke-dashoffset:0;stroke-opacity:1;visibility:visible;display:inline;overflow:visible" d="M -1559.2523,-150.68038 C -1559.2523,-150.68038 -1559.2523,327.65041 -1559.2523,327.65041 C -1702.1265,328.55086 -1904.6525,220.48075 -1904.6525,88.454235 C -1904.6525,-43.572302 -1745.2157,-150.68036 -1559.2523,-150.68038 z " id="path5018" sodipodi:nodetypes="cccc"/>
    </g>
    <rect style="opacity:1;color:#000000;fill:url(#linearGradient3249);fill-opacity:1;fill-rule:evenodd;stroke:#888a85;stroke-width:1.00000024;stroke-linecap:round;stroke-linejoin:round;marker:none;marker-start:none;marker-mid:none;marker-end:none;stroke-miterlimit:4;stroke-dasharray:none;stroke-dashoffset:0;stroke-opacity:1;visibility:visible;display:inline;overflow:visible" id="rect2354" width="41.988247" height="41.988247" x="3.5058835" y="2.505883" rx="1.8750006" ry="1.8750006"/>
    <path sodipodi:type="inkscape:offset" inkscape:radius="-1.0340382" inkscape:original="M 5.375 2.5 C 4.3362497 2.5 3.5 3.3362496 3.5 4.375 L 3.5 42.625 C 3.5 43.66375 4.3362496 44.500001 5.375 44.5 L 43.625 44.5 C 44.66375 44.5 45.500001 43.66375 45.5 42.625 L 45.5 4.375 C 45.5 3.3362497 44.663751 2.5 43.625 2.5 L 5.375 2.5 z " xlink:href="#rect2354" style="opacity:1;color:#000000;fill:none;fill-opacity:1;fill-rule:evenodd;stroke:#ffffff;stroke-width:1;stroke-linecap:round;stroke-linejoin:round;marker:none;marker-start:none;marker-mid:none;marker-end:none;stroke-miterlimit:4;stroke-dasharray:none;stroke-dashoffset:0;stroke-opacity:1;visibility:visible;display:inline;overflow:visible" id="path3247" inkscape:href="#rect2354" d="M 5.375,3.53125 C 4.8912209,3.53125 4.53125,3.8912205 4.53125,4.375 L 4.53125,42.625 C 4.53125,43.108779 4.8912224,43.46875 5.375,43.46875 L 43.125,43.46875 C 43.608779,43.46875 43.96875,43.108779 43.96875,42.625 L 43.96875,4.375 C 43.96875,3.8912207 43.608779,3.53125 43.125,3.53125 L 5.375,3.53125 z "/>
    <path style="opacity:1;color:#000000;fill:url(#linearGradient3266);fill-opacity:1.0;fill-rule:evenodd;stroke:none;stroke-width:1;stroke-linecap:round;stroke-linejoin:round;marker:none;marker-start:none;marker-mid:none;marker-end:none;stroke-miterlimit:4;stroke-dasharray:none;stroke-dashoffset:0;stroke-opacity:1;visibility:visible;display:inline;overflow:visible" d="M 6 5 L 6 18 L 10.03125 13.96875 L 18.03125 22.03125 L 23 17 L 15 9 L 19 5 L 6 5 z " id="path3251"/>
    <path id="path3268" d="M 43,5 L 43,18 L 38.96875,13.96875 L 30.96875,22.03125 L 26,17 L 34,9 L 30,5 L 43,5 z " style="opacity:1;color:#000000;fill:url(#linearGradient3270);fill-opacity:1;fill-rule:evenodd;stroke:none;stroke-width:1;stroke-linecap:round;stroke-linejoin:round;marker:none;marker-start:none;marker-mid:none;marker-end:none;stroke-miterlimit:4;stroke-dasharray:none;stroke-dashoffset:0;stroke-opacity:1;visibility:visible;display:inline;overflow:visible"/>
    <path id="path3274" d="M 6,42.03125 L 6,29.03125 L 10.03125,33.0625 L 18.03125,25 L 23,30.03125 L 15,38.03125 L 19,42.03125 L 6,42.03125 z " style="opacity:1;color:#000000;fill:url(#linearGradient3278);fill-opacity:1;fill-rule:evenodd;stroke:none;stroke-width:1;stroke-linecap:round;stroke-linejoin:round;marker:none;marker-start:none;marker-mid:none;marker-end:none;stroke-miterlimit:4;stroke-dasharray:none;stroke-dashoffset:0;stroke-opacity:1;visibility:visible;display:inline;overflow:visible"/>
    <path style="opacity:1;color:#000000;fill:url(#linearGradient3280);fill-opacity:1;fill-rule:evenodd;stroke:none;stroke-width:1;stroke-linecap:round;stroke-linejoin:round;marker:none;marker-start:none;marker-mid:none;marker-end:none;stroke-miterlimit:4;stroke-dasharray:none;stroke-dashoffset:0;stroke-opacity:1;visibility:visible;display:inline;overflow:visible" d="M 43,42.03125 L 43,29.03125 L 38.96875,33.0625 L 30.96875,25 L 26,30.03125 L 34,38.03125 L 30,42.03125 L 43,42.03125 z " id="path3276"/>
  </g>
</svg>