<?xml version="1.0" encoding="UTF-8" standalone="no"?>
<!-- Created with Inkscape (http://www.inkscape.org/) -->
<svg xmlns:dc="http://purl.org/dc/elements/1.1/" xmlns:cc="http://creativecommons.org/ns#" xmlns:rdf="http://www.w3.org/1999/02/22-rdf-syntax-ns#" xmlns:svg="http://www.w3.org/2000/svg" xmlns="http://www.w3.org/2000/svg" xmlns:xlink="http://www.w3.org/1999/xlink" xmlns:sodipodi="http://sodipodi.sourceforge.net/DTD/sodipodi-0.dtd" xmlns:inkscape="http://www.inkscape.org/namespaces/inkscape" sodipodi:docname="View-zoom-in.svg" inkscape:version="0.48.1 r9760" sodipodi:version="0.32" id="svg11300" height="48px" width="48px" inkscape:output_extension="org.inkscape.output.svg.inkscape" version="1.1">
  <defs id="defs3">
    <linearGradient id="linearGradient2846">
      <stop id="stop2848" offset="0.0000000" style="stop-color:#8a8a8a;stop-opacity:1.0000000;"/>
      <stop id="stop2850" offset="1.0000000" style="stop-color:#484848;stop-opacity:1.0000000;"/>
    </linearGradient>
    <linearGradient id="linearGradient2366">
      <stop id="stop2368" offset="0" style="stop-color:#ffffff;stop-opacity:1;"/>
      <stop style="stop-color:#ffffff;stop-opacity:0.21904762;" offset="0.50000000" id="stop2374"/>
      <stop id="stop2370" offset="1.0000000" style="stop-color:#ffffff;stop-opacity:1.0000000;"/>
    </linearGradient>
    <linearGradient inkscape:collect="always" id="linearGradient4487">
      <stop style="stop-color:#ffffff;stop-opacity:1;" offset="0" id="stop4489"/>
      <stop style="stop-color:#ffffff;stop-opacity:0;" offset="1" id="stop4491"/>
    </linearGradient>
    <linearGradient inkscape:collect="always" id="linearGradient4477">
      <stop style="stop-color:#000000;stop-opacity:1;" offset="0" id="stop4479"/>
      <stop style="stop-color:#000000;stop-opacity:0;" offset="1" id="stop4481"/>
    </linearGradient>
    <linearGradient id="linearGradient4467">
      <stop style="stop-color:#ffffff;stop-opacity:1;" offset="0" id="stop4469"/>
      <stop style="stop-color:#ffffff;stop-opacity:0.24761905;" offset="1.0000000" id="stop4471"/>
    </linearGradient>
    <linearGradient id="linearGradient4454">
      <stop style="stop-color:#729fcf;stop-opacity:0.20784314;" offset="0.0000000" id="stop4456"/>
      <stop style="stop-color:#729fcf;stop-opacity:0.67619050;" offset="1.0000000" id="stop4458"/>
    </linearGradient>
    <linearGradient id="linearGradient4440">
      <stop style="stop-color:#7d7d7d;stop-opacity:1;" offset="0" id="stop4442"/>
      <stop id="stop4448" offset="0.50000000" style="stop-color:#b1b1b1;stop-opacity:1.0000000;"/>
      <stop style="stop-color:#686868;stop-opacity:1.0000000;" offset="1.0000000" id="stop4444"/>
    </linearGradient>
    <linearGradient inkscape:collect="always" xlink:href="#linearGradient4440" id="linearGradient4446" x1="30.656250" y1="34.000000" x2="33.218750" y2="31.062500" gradientUnits="userSpaceOnUse" gradientTransform="matrix(1.33459, 0, 0, 1.29129, -6.97384, -7.46066)"/>
    <radialGradient inkscape:collect="always" xlink:href="#linearGradient4454" id="radialGradient4460" cx="18.240929" cy="21.817987" fx="18.240929" fy="21.817987" r="8.3085051" gradientUnits="userSpaceOnUse"/>
    <radialGradient inkscape:collect="always" xlink:href="#linearGradient4467" id="radialGradient4473" cx="15.414371" cy="13.078408" fx="15.414371" fy="13.078408" r="6.6562500" gradientTransform="matrix(2.59296, -7.7469e-24, -5.71444e-24, 2.2521, -25.0597, -18.941)" gradientUnits="userSpaceOnUse"/>
    <radialGradient inkscape:collect="always" xlink:href="#linearGradient4487" id="radialGradient4493" cx="24.130018" cy="37.967922" fx="24.130018" fy="37.967922" r="16.528622" gradientTransform="matrix(1, 0, 0, 0.237968, 3.15286e-15, 28.9328)" gradientUnits="userSpaceOnUse"/>
    <linearGradient gradientUnits="userSpaceOnUse" y2="25.743469" x2="17.500893" y1="13.602121" x1="18.292673" id="linearGradient2372" xlink:href="#linearGradient2366" inkscape:collect="always"/>
    <radialGradient r="16.528622" fy="37.967922" fx="24.130018" cy="37.967922" cx="24.130018" gradientTransform="matrix(1, 0, 0, 0.237968, -2.47198e-16, 28.9328)" gradientUnits="userSpaceOnUse" id="radialGradient2842" xlink:href="#linearGradient4477" inkscape:collect="always"/>
    <linearGradient gradientUnits="userSpaceOnUse" y2="30.557772" x2="31.335964" y1="26.580296" x1="27.366341" id="linearGradient2852" xlink:href="#linearGradient2846" inkscape:collect="always"/>
    <radialGradient gradientUnits="userSpaceOnUse" gradientTransform="matrix(0.914812, 0.0126502, -0.00821502, 0.213562, 2.25391, 27.1889)" r="10.319340" fy="35.127438" fx="23.070683" cy="35.127438" cx="23.070683" id="radialGradient2097" xlink:href="#linearGradient2091" inkscape:collect="always"/>
    <linearGradient y2="50.939667" x2="45.380436" y1="45.264122" x1="46.834816" gradientUnits="userSpaceOnUse" id="linearGradient7186" xlink:href="#linearGradient2871" inkscape:collect="always"/>
    <linearGradient y2="26.649362" x2="53.588622" y1="23.667896" x1="18.935766" gradientUnits="userSpaceOnUse" id="linearGradient7184" xlink:href="#linearGradient2402" inkscape:collect="always"/>
    <linearGradient y2="50.939667" x2="45.380436" y1="45.264122" x1="46.834816" gradientUnits="userSpaceOnUse" id="linearGradient7182" xlink:href="#linearGradient2871" inkscape:collect="always"/>
    <linearGradient y2="20.60858" x2="15.984863" y1="36.061237" x1="62.513836" gradientUnits="userSpaceOnUse" id="linearGradient7180" xlink:href="#linearGradient2380" inkscape:collect="always"/>
    <linearGradient gradientTransform="matrix(-1, 0, 0, -1, 47.9393, 50.0247)" y2="23.554308" x2="22.374878" y1="13.604306" x1="13.435029" gradientUnits="userSpaceOnUse" id="linearGradient7189" xlink:href="#linearGradient7179" inkscape:collect="always"/>
    <linearGradient gradientUnits="userSpaceOnUse" y2="23.554308" x2="22.374878" y1="13.604306" x1="13.435029" id="linearGradient7185" xlink:href="#linearGradient7179" inkscape:collect="always"/>
    <linearGradient id="linearGradient1322">
      <stop style="stop-color:#729fcf" offset="0.0000000" id="stop1324"/>
      <stop style="stop-color:#5187d6;stop-opacity:1.0000000;" offset="1.0000000" id="stop1326"/>
    </linearGradient>
    <linearGradient id="linearGradient2316">
      <stop id="stop2318" offset="0" style="stop-color:#000000;stop-opacity:1;"/>
      <stop id="stop2320" offset="1" style="stop-color:#ffffff;stop-opacity:0.65979379;"/>
    </linearGradient>
    <linearGradient id="linearGradient7179" inkscape:collect="always">
      <stop id="stop7181" offset="0" style="stop-color:#ffffff;stop-opacity:1;"/>
      <stop id="stop7183" offset="1" style="stop-color:#ffffff;stop-opacity:0;"/>
    </linearGradient>
    <linearGradient y2="26.048164" x2="52.854097" y1="26.048164" x1="5.9649176" gradientUnits="userSpaceOnUse" id="linearGradient1491" xlink:href="#linearGradient2797" inkscape:collect="always"/>
    <linearGradient id="linearGradient2797" inkscape:collect="always">
      <stop id="stop2799" offset="0" style="stop-color:#ffffff;stop-opacity:1;"/>
      <stop id="stop2801" offset="1" style="stop-color:#ffffff;stop-opacity:0;"/>
    </linearGradient>
    <linearGradient y2="26.048164" x2="52.854097" y1="26.048164" x1="5.9649176" gradientUnits="userSpaceOnUse" id="linearGradient1493" xlink:href="#linearGradient2797" inkscape:collect="always"/>
    <linearGradient id="linearGradient2402">
      <stop id="stop2404" offset="0" style="stop-color:#729fcf;stop-opacity:1;"/>
      <stop id="stop2406" offset="1" style="stop-color:#528ac5;stop-opacity:1;"/>
    </linearGradient>
    <linearGradient id="linearGradient2871" inkscape:collect="always">
      <stop id="stop2873" offset="0" style="stop-color:#3465a4;stop-opacity:1;"/>
      <stop id="stop2875" offset="1" style="stop-color:#3465a4;stop-opacity:1"/>
    </linearGradient>
    <linearGradient gradientTransform="translate(-48.7704, -5.76571)" gradientUnits="userSpaceOnUse" y2="24.842253" x2="37.124462" y1="30.748846" x1="32.647972" id="linearGradient2696" xlink:href="#linearGradient2690" inkscape:collect="always"/>
    <linearGradient id="linearGradient2690" inkscape:collect="always">
      <stop id="stop2692" offset="0" style="stop-color:#c4d7eb;stop-opacity:1;"/>
      <stop id="stop2694" offset="1" style="stop-color:#c4d7eb;stop-opacity:0;"/>
    </linearGradient>
    <linearGradient gradientTransform="translate(-48.7704, -5.76571)" gradientUnits="userSpaceOnUse" y2="24.842253" x2="37.124462" y1="31.455952" x1="36.713837" id="linearGradient2688" xlink:href="#linearGradient2682" inkscape:collect="always"/>
    <linearGradient id="linearGradient2682">
      <stop id="stop2684" offset="0" style="stop-color:#3977c3;stop-opacity:1;"/>
      <stop id="stop2686" offset="1" style="stop-color:#89aedc;stop-opacity:0;"/>
    </linearGradient>
    <linearGradient id="linearGradient2380">
      <stop id="stop2382" offset="0" style="stop-color:#b9cfe7;stop-opacity:1"/>
      <stop id="stop2384" offset="1" style="stop-color:#729fcf;stop-opacity:1"/>
    </linearGradient>
    <linearGradient y2="19.115122" x2="15.419417" y1="10.612206" x1="13.478554" gradientTransform="translate(-48.305, -6.0433)" gradientUnits="userSpaceOnUse" id="linearGradient1486" xlink:href="#linearGradient2831" inkscape:collect="always"/>
    <linearGradient id="linearGradient2831">
      <stop id="stop2833" offset="0" style="stop-color:#3465a4;stop-opacity:1;"/>
      <stop style="stop-color:#5b86be;stop-opacity:1;" offset="0.33333334" id="stop2855"/>
      <stop id="stop2835" offset="1" style="stop-color:#83a8d8;stop-opacity:0;"/>
    </linearGradient>
    <linearGradient y2="26.194071" x2="37.065414" y1="29.729605" x1="37.128052" gradientTransform="matrix(-1, 0, 0, -1, -1.24248, 40.0817)" gradientUnits="userSpaceOnUse" id="linearGradient1488" xlink:href="#linearGradient2847" inkscape:collect="always"/>
    <linearGradient id="linearGradient2847" inkscape:collect="always">
      <stop id="stop2849" offset="0" style="stop-color:#3465a4;stop-opacity:1;"/>
      <stop id="stop2851" offset="1" style="stop-color:#3465a4;stop-opacity:0;"/>
    </linearGradient>
    <radialGradient r="15.644737" fy="36.421127" fx="24.837126" cy="36.421127" cx="24.837126" gradientTransform="matrix(1, 0, 0, 0.536723, -1.01899e-13, 16.8731)" gradientUnits="userSpaceOnUse" id="radialGradient1503" xlink:href="#linearGradient8662" inkscape:collect="always"/>
    <linearGradient id="linearGradient8662" inkscape:collect="always">
      <stop id="stop8664" offset="0" style="stop-color:#000000;stop-opacity:1;"/>
      <stop id="stop8666" offset="1" style="stop-color:#000000;stop-opacity:0;"/>
    </linearGradient>
    <linearGradient id="linearGradient7916">
      <stop id="stop7918" offset="0" style="stop-color:#ffffff;stop-opacity:1;"/>
      <stop id="stop7920" offset="1.0000000" style="stop-color:#ffffff;stop-opacity:0.34020618;"/>
    </linearGradient>
    <linearGradient id="linearGradient2091" inkscape:collect="always">
      <stop id="stop2093" offset="0" style="stop-color:#000000;stop-opacity:1;"/>
      <stop id="stop2095" offset="1" style="stop-color:#000000;stop-opacity:0;"/>
    </linearGradient>
    <linearGradient inkscape:collect="always" id="linearGradient2091-4">
      <stop style="stop-color:#000000;stop-opacity:1;" offset="0" id="stop2093-5"/>
      <stop style="stop-color:#000000;stop-opacity:0;" offset="1" id="stop2095-1"/>
    </linearGradient>
    <linearGradient id="linearGradient7916-4">
      <stop style="stop-color:#ffffff;stop-opacity:1;" offset="0" id="stop7918-2"/>
      <stop style="stop-color:#ffffff;stop-opacity:0.34020618;" offset="1.0000000" id="stop7920-2"/>
    </linearGradient>
    <linearGradient inkscape:collect="always" id="linearGradient8662-1">
      <stop style="stop-color:#000000;stop-opacity:1;" offset="0" id="stop8664-8"/>
      <stop style="stop-color:#000000;stop-opacity:0;" offset="1" id="stop8666-3"/>
    </linearGradient>
    <radialGradient inkscape:collect="always" xlink:href="#linearGradient8662-1" id="radialGradient1503-3" gradientUnits="userSpaceOnUse" gradientTransform="matrix(1, 0, 0, 0.536723, -1.01899e-13, 16.8731)" cx="24.837126" cy="36.421127" fx="24.837126" fy="36.421127" r="15.644737"/>
    <linearGradient inkscape:collect="always" id="linearGradient2847-9">
      <stop style="stop-color:#3465a4;stop-opacity:1;" offset="0" id="stop2849-2"/>
      <stop style="stop-color:#3465a4;stop-opacity:0;" offset="1" id="stop2851-2"/>
    </linearGradient>
    <linearGradient inkscape:collect="always" xlink:href="#linearGradient2847-9" id="linearGradient1488-8" gradientUnits="userSpaceOnUse" gradientTransform="matrix(-1, 0, 0, -1, -1.24248, 40.0817)" x1="37.128052" y1="29.729605" x2="37.065414" y2="26.194071"/>
    <linearGradient id="linearGradient2831-3">
      <stop style="stop-color:#3465a4;stop-opacity:1;" offset="0" id="stop2833-8"/>
      <stop id="stop2855-6" offset="0.33333334" style="stop-color:#5b86be;stop-opacity:1;"/>
      <stop style="stop-color:#83a8d8;stop-opacity:0;" offset="1" id="stop2835-0"/>
    </linearGradient>
    <linearGradient inkscape:collect="always" xlink:href="#linearGradient2831-3" id="linearGradient1486-4" gradientUnits="userSpaceOnUse" gradientTransform="translate(-48.305, -6.0433)" x1="13.478554" y1="10.612206" x2="15.419417" y2="19.115122"/>
    <linearGradient id="linearGradient2380-5">
      <stop style="stop-color:#b9cfe7;stop-opacity:1" offset="0" id="stop2382-2"/>
      <stop style="stop-color:#729fcf;stop-opacity:1" offset="1" id="stop2384-4"/>
    </linearGradient>
    <linearGradient id="linearGradient2682-7">
      <stop style="stop-color:#3977c3;stop-opacity:1;" offset="0" id="stop2684-4"/>
      <stop style="stop-color:#89aedc;stop-opacity:0;" offset="1" id="stop2686-2"/>
    </linearGradient>
    <linearGradient inkscape:collect="always" xlink:href="#linearGradient2682-7" id="linearGradient2688-2" x1="36.713837" y1="31.455952" x2="37.124462" y2="24.842253" gradientUnits="userSpaceOnUse" gradientTransform="translate(-48.7704, -5.76571)"/>
    <linearGradient inkscape:collect="always" id="linearGradient2690-3">
      <stop style="stop-color:#c4d7eb;stop-opacity:1;" offset="0" id="stop2692-4"/>
      <stop style="stop-color:#c4d7eb;stop-opacity:0;" offset="1" id="stop2694-9"/>
    </linearGradient>
    <linearGradient inkscape:collect="always" xlink:href="#linearGradient2690-3" id="linearGradient2696-0" x1="32.647972" y1="30.748846" x2="37.124462" y2="24.842253" gradientUnits="userSpaceOnUse" gradientTransform="translate(-48.7704, -5.76571)"/>
    <linearGradient inkscape:collect="always" id="linearGradient2871-3">
      <stop style="stop-color:#3465a4;stop-opacity:1;" offset="0" id="stop2873-7"/>
      <stop style="stop-color:#3465a4;stop-opacity:1" offset="1" id="stop2875-0"/>
    </linearGradient>
    <linearGradient id="linearGradient2402-2">
      <stop style="stop-color:#729fcf;stop-opacity:1;" offset="0" id="stop2404-8"/>
      <stop style="stop-color:#528ac5;stop-opacity:1;" offset="1" id="stop2406-0"/>
    </linearGradient>
    <linearGradient inkscape:collect="always" xlink:href="#linearGradient2797-7" id="linearGradient1493-3" gradientUnits="userSpaceOnUse" x1="5.9649176" y1="26.048164" x2="52.854097" y2="26.048164"/>
    <linearGradient inkscape:collect="always" id="linearGradient2797-7">
      <stop style="stop-color:#ffffff;stop-opacity:1;" offset="0" id="stop2799-4"/>
      <stop style="stop-color:#ffffff;stop-opacity:0;" offset="1" id="stop2801-0"/>
    </linearGradient>
    <linearGradient inkscape:collect="always" xlink:href="#linearGradient2797-7" id="linearGradient1491-2" gradientUnits="userSpaceOnUse" x1="5.9649176" y1="26.048164" x2="52.854097" y2="26.048164"/>
    <linearGradient inkscape:collect="always" id="linearGradient7179-1">
      <stop style="stop-color:#ffffff;stop-opacity:1;" offset="0" id="stop7181-0"/>
      <stop style="stop-color:#ffffff;stop-opacity:0;" offset="1" id="stop7183-4"/>
    </linearGradient>
    <linearGradient id="linearGradient2316-2">
      <stop style="stop-color:#000000;stop-opacity:1;" offset="0" id="stop2318-6"/>
      <stop style="stop-color:#ffffff;stop-opacity:0.65979379;" offset="1" id="stop2320-9"/>
    </linearGradient>
    <linearGradient id="linearGradient1322-8">
      <stop id="stop1324-1" offset="0.0000000" style="stop-color:#729fcf"/>
      <stop id="stop1326-2" offset="1.0000000" style="stop-color:#5187d6;stop-opacity:1.0000000;"/>
    </linearGradient>
    <linearGradient inkscape:collect="always" xlink:href="#linearGradient1322-8" id="linearGradient4975-0" x1="34.892849" y1="36.422989" x2="45.918697" y2="48.547989" gradientUnits="userSpaceOnUse" gradientTransform="translate(-18.0179, -13.5712)"/>
    <linearGradient inkscape:collect="always" xlink:href="#linearGradient7179-1" id="linearGradient7185-5" x1="13.435029" y1="13.604306" x2="22.374878" y2="23.554308" gradientUnits="userSpaceOnUse"/>
    <linearGradient inkscape:collect="always" xlink:href="#linearGradient7179-1" id="linearGradient7189-6" gradientUnits="userSpaceOnUse" x1="13.435029" y1="13.604306" x2="22.374878" y2="23.554308" gradientTransform="matrix(-1, 0, 0, -1, 47.9393, 50.0247)"/>
    <linearGradient inkscape:collect="always" xlink:href="#linearGradient2380-5" id="linearGradient7180-0" gradientUnits="userSpaceOnUse" x1="62.513836" y1="36.061237" x2="15.984863" y2="20.60858"/>
    <linearGradient inkscape:collect="always" xlink:href="#linearGradient2871-3" id="linearGradient7182-5" gradientUnits="userSpaceOnUse" x1="46.834816" y1="45.264122" x2="45.380436" y2="50.939667"/>
    <linearGradient inkscape:collect="always" xlink:href="#linearGradient2402-2" id="linearGradient7184-1" gradientUnits="userSpaceOnUse" x1="18.935766" y1="23.667896" x2="53.588622" y2="26.649362"/>
    <linearGradient inkscape:collect="always" xlink:href="#linearGradient2871-3" id="linearGradient7186-6" gradientUnits="userSpaceOnUse" x1="46.834816" y1="45.264122" x2="45.380436" y2="50.939667"/>
    <linearGradient inkscape:collect="always" xlink:href="#linearGradient7916-4" id="linearGradient7922-7" x1="16.874998" y1="22.851799" x2="27.900846" y2="34.976799" gradientUnits="userSpaceOnUse"/>
    <radialGradient inkscape:collect="always" xlink:href="#linearGradient2091-4" id="radialGradient2097-3" cx="23.070683" cy="35.127438" fx="23.070683" fy="35.127438" r="10.319340" gradientTransform="matrix(0.914812, 0.0126502, -0.00821502, 0.213562, 2.25391, 27.1889)" gradientUnits="userSpaceOnUse"/>
    <linearGradient inkscape:collect="always" xlink:href="#linearGradient2846-0" id="linearGradient2852-6" x1="27.366341" y1="26.580296" x2="31.335964" y2="30.557772" gradientUnits="userSpaceOnUse"/>
    <radialGradient inkscape:collect="always" xlink:href="#linearGradient4477-1" id="radialGradient2842-7" gradientUnits="userSpaceOnUse" gradientTransform="matrix(1, 0, 0, 0.237968, 0, 28.9328)" cx="24.130018" cy="37.967922" fx="24.130018" fy="37.967922" r="16.528622"/>
    <linearGradient inkscape:collect="always" xlink:href="#linearGradient2366-6" id="linearGradient2372-0" x1="18.292673" y1="13.602121" x2="17.500893" y2="25.743469" gradientUnits="userSpaceOnUse"/>
    <radialGradient gradientUnits="userSpaceOnUse" gradientTransform="matrix(1, 0, 0, 0.237968, 0, 28.9328)" r="16.528622" fy="37.967922" fx="24.130018" cy="37.967922" cx="24.130018" id="radialGradient4493-9" xlink:href="#linearGradient4487-8" inkscape:collect="always"/>
    <radialGradient gradientUnits="userSpaceOnUse" gradientTransform="matrix(2.59296, 0, 0, 2.2521, -25.0597, -18.941)" r="6.6562500" fy="13.078408" fx="15.414371" cy="13.078408" cx="15.414371" id="radialGradient4473-9" xlink:href="#linearGradient4467-5" inkscape:collect="always"/>
    <radialGradient gradientUnits="userSpaceOnUse" r="8.3085051" fy="21.817987" fx="18.240929" cy="21.817987" cx="18.240929" id="radialGradient4460-5" xlink:href="#linearGradient4454-4" inkscape:collect="always"/>
    <linearGradient gradientTransform="matrix(1.33459, 0, 0, 1.29129, -6.97384, -7.46066)" gradientUnits="userSpaceOnUse" y2="31.062500" x2="33.218750" y1="34.000000" x1="30.656250" id="linearGradient4446-6" xlink:href="#linearGradient4440-0" inkscape:collect="always"/>
    <linearGradient id="linearGradient4440-0">
      <stop id="stop4442-8" offset="0" style="stop-color:#7d7d7d;stop-opacity:1;"/>
      <stop style="stop-color:#b1b1b1;stop-opacity:1.0000000;" offset="0.50000000" id="stop4448-3"/>
      <stop id="stop4444-5" offset="1.0000000" style="stop-color:#686868;stop-opacity:1.0000000;"/>
    </linearGradient>
    <linearGradient id="linearGradient4454-4">
      <stop id="stop4456-1" offset="0.0000000" style="stop-color:#729fcf;stop-opacity:0.20784314;"/>
      <stop id="stop4458-5" offset="1.0000000" style="stop-color:#729fcf;stop-opacity:0.67619050;"/>
    </linearGradient>
    <linearGradient id="linearGradient4467-5">
      <stop id="stop4469-9" offset="0" style="stop-color:#ffffff;stop-opacity:1;"/>
      <stop id="stop4471-3" offset="1.0000000" style="stop-color:#ffffff;stop-opacity:0.24761905;"/>
    </linearGradient>
    <linearGradient id="linearGradient4477-1" inkscape:collect="always">
      <stop id="stop4479-1" offset="0" style="stop-color:#000000;stop-opacity:1;"/>
      <stop id="stop4481-3" offset="1" style="stop-color:#000000;stop-opacity:0;"/>
    </linearGradient>
    <linearGradient id="linearGradient4487-8" inkscape:collect="always">
      <stop id="stop4489-0" offset="0" style="stop-color:#ffffff;stop-opacity:1;"/>
      <stop id="stop4491-4" offset="1" style="stop-color:#ffffff;stop-opacity:0;"/>
    </linearGradient>
    <linearGradient id="linearGradient2366-6">
      <stop style="stop-color:#ffffff;stop-opacity:1;" offset="0" id="stop2368-3"/>
      <stop id="stop2374-5" offset="0.50000000" style="stop-color:#ffffff;stop-opacity:0.21904762;"/>
      <stop style="stop-color:#ffffff;stop-opacity:1.0000000;" offset="1.0000000" id="stop2370-0"/>
    </linearGradient>
    <linearGradient id="linearGradient2846-0">
      <stop style="stop-color:#8a8a8a;stop-opacity:1.0000000;" offset="0.0000000" id="stop2848-8"/>
      <stop style="stop-color:#484848;stop-opacity:1.0000000;" offset="1.0000000" id="stop2850-7"/>
    </linearGradient>
    <linearGradient inkscape:collect="always" xlink:href="#linearGradient2846" id="linearGradient3882" gradientUnits="userSpaceOnUse" x1="27.366341" y1="26.580296" x2="31.335964" y2="30.557772"/>
    <linearGradient inkscape:collect="always" xlink:href="#linearGradient4440" id="linearGradient3884" gradientUnits="userSpaceOnUse" gradientTransform="matrix(1.33459, 0, 0, 1.29129, -6.97384, -7.46066)" x1="30.656250" y1="34.000000" x2="33.218750" y2="31.062500"/>
    <linearGradient inkscape:collect="always" xlink:href="#linearGradient2366" id="linearGradient3886" gradientUnits="userSpaceOnUse" x1="18.292673" y1="13.602121" x2="17.500893" y2="25.743469"/>
    <radialGradient inkscape:collect="always" xlink:href="#linearGradient4454" id="radialGradient3888" gradientUnits="userSpaceOnUse" cx="18.240929" cy="21.817987" fx="18.240929" fy="21.817987" r="8.3085051"/>
    <radialGradient inkscape:collect="always" xlink:href="#linearGradient4467" id="radialGradient3890" gradientUnits="userSpaceOnUse" gradientTransform="matrix(2.59296, 0, 0, 2.2521, -25.0597, -18.941)" cx="15.414371" cy="13.078408" fx="15.414371" fy="13.078408" r="6.6562500"/>
  </defs>
  <sodipodi:namedview stroke="#3465a4" inkscape:window-y="0" inkscape:window-x="99" inkscape:window-height="1056" inkscape:window-width="1820" inkscape:showpageshadow="false" inkscape:document-units="px" inkscape:grid-bbox="true" showgrid="false" inkscape:current-layer="g4336" inkscape:cy="27.97775" inkscape:cx="15.962112" inkscape:zoom="1" inkscape:pageshadow="2" inkscape:pageopacity="0.0" borderopacity="0.25490196" bordercolor="#666666" pagecolor="#ffffff" id="base" fill="#729fcf" inkscape:object-paths="true" inkscape:window-maximized="1">
    <inkscape:grid type="xygrid" id="grid3085"/>
  </sodipodi:namedview>
  <metadata id="metadata4">
    <rdf:RDF>
      <cc:Work rdf:about="">
        <dc:format>image/svg+xml</dc:format>
        <dc:type rdf:resource="http://purl.org/dc/dcmitype/StillImage"/>
        <dc:creator>
          <cc:Agent>
            <dc:title>Martin Ruskov</dc:title>
          </cc:Agent>
        </dc:creator>
        <dc:source>http://commons.wikimedia.org/wiki/Tango_icon</dc:source>
        <cc:license rdf:resource="http://creativecommons.org/licenses/by-sa/2.0/"/>
        <dc:title/>
      </cc:Work>
      <cc:License rdf:about="http://creativecommons.org/licenses/by-sa/2.0/">
        <cc:permits rdf:resource="http://web.resource.org/cc/Reproduction"/>
        <cc:permits rdf:resource="http://web.resource.org/cc/Distribution"/>
        <cc:requires rdf:resource="http://web.resource.org/cc/Notice"/>
        <cc:requires rdf:resource="http://web.resource.org/cc/Attribution"/>
        <cc:permits rdf:resource="http://web.resource.org/cc/DerivativeWorks"/>
        <cc:requires rdf:resource="http://web.resource.org/cc/ShareAlike"/>
      </cc:License>
    </rdf:RDF>
  </metadata>
  <g inkscape:groupmode="layer" id="layer2" inkscape:label="Shadow" sodipodi:insensitive="true">
    <path sodipodi:type="arc" style="opacity:0.17112301;color:#000000;fill:url(#radialGradient2842);fill-opacity:1;fill-rule:evenodd;stroke:none;stroke-width:1;marker:none;visibility:visible;display:inline;overflow:visible" id="path4475" sodipodi:cx="24.130018" sodipodi:cy="37.967922" sodipodi:rx="16.528622" sodipodi:ry="3.9332814" d="m 40.65864,37.967922 a 16.528622,3.9332814 0 1 1 -33.0572434,0 16.528622,3.9332814 0 1 1 33.0572434,0 z" transform="matrix(1.44643, 0, 0, 1.51999, -10.9745, -17.7517)"/>
    <path transform="matrix(0.497764, 0, 0, 0.609621, 8.97353, 15.6193)" d="m 40.65864,37.967922 a 16.528622,3.9332814 0 1 1 -33.0572434,0 16.528622,3.9332814 0 1 1 33.0572434,0 z" sodipodi:ry="3.9332814" sodipodi:rx="16.528622" sodipodi:cy="37.967922" sodipodi:cx="24.130018" id="path4485" style="color:#000000;fill:url(#radialGradient4493);fill-opacity:1;fill-rule:evenodd;stroke:none;stroke-width:1;marker:none;visibility:visible;display:inline;overflow:visible" sodipodi:type="arc"/>
  </g>
  <g inkscape:groupmode="layer" id="layer3" inkscape:label="Magnifying glass" sodipodi:insensitive="true">
    <g id="g1772" transform="translate(0.123723, 0.075351)">
      <path sodipodi:nodetypes="csscccscccscczzzz" id="path2844" d="m 18.627569,3.1435548 c -8.13913,0 -14.7448008,6.6056711 -14.7448008,14.7448012 0,8.13913 6.6056708,14.744802 14.7448008,14.744802 3.479555,0 6.551001,-1.384393 9.073723,-3.402647 -0.205377,1.006881 -0.07803,2.035368 0.756144,2.759925 l 10.964084,9.52741 c 1.233416,1.071329 3.087462,0.93096 4.15879,-0.302457 1.071328,-1.233418 0.930959,-3.087462 -0.302457,-4.15879 L 32.313769,27.529188 c -0.671527,-0.583279 -1.492878,-0.755969 -2.306238,-0.642722 1.9867,-2.512422 3.364839,-5.548803 3.364839,-8.99811 0,-8.1391301 -6.605671,-14.7448012 -14.744801,-14.7448012 z m -0.07562,1.2261833 c 7.639459,0 13.291775,4.7889505 13.291775,13.2917749 0,8.675113 -5.81669,13.291775 -13.291775,13.291775 -7.302949,0 -13.2917734,-5.478092 -13.2917734,-13.291775 0,-7.9841069 5.8246384,-13.291775 13.2917734,-13.2917749 z" style="color:#000000;fill:#dcdcdc;fill-opacity:1;fill-rule:evenodd;stroke:url(#linearGradient3882);stroke-width:2.00000095;stroke-linecap:round;stroke-linejoin:miter;stroke-miterlimit:10;stroke-opacity:1;stroke-dasharray:none;stroke-dashoffset:0;marker:none;visibility:visible;display:inline;overflow:visible" inkscape:connector-curvature="0"/>
      <path style="color:#000000;fill:#dcdcdc;fill-opacity:1;fill-rule:evenodd;stroke:none;stroke-width:1.00000036;marker:none;visibility:visible;display:inline;overflow:visible" d="m 18.602905,3.0803551 c -8.16544,0 -14.7924642,6.627024 -14.7924642,14.7924639 0,8.16544 6.6270242,14.792464 14.7924642,14.792464 3.490803,0 6.572177,-1.388867 9.103055,-3.413645 -0.206041,1.010136 -0.07829,2.041947 0.758587,2.768846 l 10.999526,9.558207 c 1.237403,1.074792 3.097442,0.93397 4.172233,-0.303435 1.074791,-1.237404 0.933968,-3.097442 -0.303435,-4.172233 L 32.333346,27.544815 c -0.673698,-0.585164 -1.497704,-0.758413 -2.313693,-0.644799 1.993122,-2.520544 3.375716,-5.56674 3.375716,-9.027197 0,-8.1654399 -6.627024,-14.7924639 -14.792464,-14.7924639 z m -0.07586,3.1860692 c 6.281108,2e-7 11.378818,5.0977107 11.378818,11.3788187 0,6.281108 -5.09771,11.378818 -11.378818,11.378818 -6.281108,0 -11.3788184,-5.09771 -11.3788184,-11.378818 2e-7,-6.281108 5.0977104,-11.3788187 11.3788184,-11.3788187 z" id="path4430" inkscape:connector-curvature="0"/>
      <path style="color:#000000;fill:url(#linearGradient3884);fill-opacity:1;fill-rule:evenodd;stroke:none;stroke-width:1;marker:none;visibility:visible;display:inline;overflow:visible" d="m 39.507004,41.57769 c -0.478672,-2.273187 1.39733,-4.811422 3.584053,-4.788375 0,0 -10.760367,-9.258111 -10.760367,-9.258111 -2.944791,-0.05671 -4.269502,2.272616 -3.776814,4.599922 l 10.953128,9.446564 z" id="path4438" sodipodi:nodetypes="ccccc" inkscape:connector-curvature="0"/>
      <path sodipodi:type="arc" style="color:#000000;fill:none;stroke:url(#linearGradient3886);stroke-width:0.8027336;stroke-linecap:round;stroke-linejoin:miter;stroke-miterlimit:10;stroke-opacity:1;stroke-dasharray:none;stroke-dashoffset:0;marker:none;visibility:visible;display:inline;overflow:visible" id="path4450" sodipodi:cx="17.500893" sodipodi:cy="18.920233" sodipodi:rx="11.048544" sodipodi:ry="11.048544" d="m 28.549437,18.920233 a 11.048544,11.048544 0 1 1 -22.0970883,0 11.048544,11.048544 0 1 1 22.0970883,0 z" transform="matrix(1.24574, 0, 0, 1.24574, -3.42535, -6.17703)"/>
      <rect style="opacity:0.43315507;color:#000000;fill:none;stroke:#ffffff;stroke-width:1.00003111;stroke-linecap:round;stroke-linejoin:miter;stroke-miterlimit:10;stroke-opacity:1;stroke-dasharray:none;stroke-dashoffset:0;marker:none;visibility:visible;display:inline;overflow:visible" id="rect4495" width="19.048439" height="4.4404783" x="40.373337" y="0.14086054" rx="2.1366608" ry="1.8879365" transform="matrix(0.752986, 0.658037, -0.648902, 0.760872, 0, 0)"/>
      <path sodipodi:type="arc" style="color:#000000;fill:url(#radialGradient3888);fill-opacity:1;fill-rule:evenodd;stroke:#3063a3;stroke-width:0.71499395;stroke-linecap:round;stroke-linejoin:miter;stroke-miterlimit:10;stroke-opacity:1;stroke-dashoffset:0;marker:none;visibility:visible" id="path4452" sodipodi:cx="17.589281" sodipodi:cy="18.478292" sodipodi:rx="8.3085051" sodipodi:ry="8.3085051" d="m 25.897786,18.478292 a 8.3085051,8.3085051 0 1 1 -16.61701,0 8.3085051,8.3085051 0 1 1 16.61701,0 z" transform="matrix(1.39861, 0, 0, 1.39861, -6.22434, -8.29896)"/>
      <path style="opacity:0.83422457;color:#000000;fill:url(#radialGradient3890);fill-opacity:1;fill-rule:evenodd;stroke:none;stroke-width:1;marker:none;visibility:visible;display:inline;overflow:visible" d="m 18.156915,7.3966938 c -5.20759,0 -9.4245469,4.2169572 -9.4245469,9.4245472 0,1.503975 0.4203072,2.887773 1.0471719,4.149903 1.25238,0.461613 2.582757,0.775683 3.994767,0.775683 6.170955,0 11.099282,-4.861637 11.480106,-10.937129 C 23.523449,8.7641668 21.044374,7.3966938 18.156915,7.3966938 z" id="path4462" inkscape:connector-curvature="0"/>
    </g>
  </g>
  <g inkscape:groupmode="layer" inkscape:label="Symbol" id="layer1" style="display:inline">
    <g inkscape:label="Layer 1" id="g4336" transform="matrix(0.502816, 0, 0, 0.502816, 6.3172, 5.16586)">
      <path style="fill:#518ac4;fill-opacity:1;stroke:#3465a4;stroke-width:1.98880064px;stroke-linecap:butt;stroke-linejoin:miter;stroke-opacity:1" d="m 10.307563,20.552553 0,7.955203 9.944004,0 7.955203,0 9.944003,0 0,-7.955203 -9.944003,0 -7.955203,0 z" id="path3853" inkscape:connector-curvature="0" sodipodi:nodetypes="ccccccccc"/>
      <path style="opacity:0.41000001;fill:none;stroke:#eeeeec;stroke-width:1.98880064px;stroke-linecap:butt;stroke-linejoin:miter;stroke-opacity:1" d="m 12.296364,22.541354 0,3.977601 9.944004,0 3.977601,0 9.944003,0 0,-3.977601 -9.944003,0 -3.977601,0 z" id="path3855" inkscape:connector-curvature="0" sodipodi:nodetypes="ccccccccc"/>
      <path style="opacity:0.4;fill:#eeeeec;stroke:none" d="m 17,16 -0.5,0 -4.5,0 0,2.1875 c 1.648689,-0.854731 4.029588,-1.379968 6.461167,-0.702665 C 20.155915,17.956898 23.079975,17.91651 25,17.625 L 25,16 20.5,16 20,16 z" transform="matrix(1.9888, 0, 0, 1.9888, -12.5636, -10.2739)" id="path3857" inkscape:connector-curvature="0" sodipodi:nodetypes="ccccsccccc"/>
    </g>
  </g>
</svg>